{
  "aws.cloudwatch.log_group____xyz-idem-test_redlock_flow_log_group": {
    "resource": {
      "aws.cloudwatch.log_group.present": [
        {
          "name": "xyz-idem-test_redlock_flow_log_group"
        },
        {
          "resource_id": "xyz-idem-test_redlock_flow_log_group"
        },
        {
          "arn": "arn:aws:logs:eu-west-3:123456789012:log-group:xyz-idem-test_redlock_flow_log_group:*"
        },
        {
          "tags": {
            "Automation": "true",
            "COGS": "OPEX",
            "Environment": "test-dev",
            "KubernetesCluster": "idem-test",
            "Owner": "org1"
          }
        }
      ]
    },
    "idem_resource_id": "xyz-idem-test_redlock_flow_log_group",
    "resource_path": "aws_cloudwatch_log_group.redlock_flow_log_group"
  },
  "aws.rds.db_subnet_group____db-subnet-group-idem-test": {
    "resource": {
      "aws.rds.db_subnet_group.present": [
        {
          "db_subnet_group_arn": "arn:aws:rds:eu-west-3:123456789012:subgrp:db-subnet-group-idem-test",
          "db_subnet_group_description": "For Aurora rds",
          "name": "db-subnet-group-idem-test",
          "resource_id": "db-subnet-group-idem-test",
          "subnets": [
            "subnet-039e53122e038d38c",
            "subnet-05dfaa0d01a337199",
            "subnet-050732fa4616470d9"
          ],
          "tags": [
            {
              "Key": "Automation",
              "Value": "true"
            },
            {
              "Key": "Owner",
              "Value": "org1"
            },
            {
              "Key": "COGS",
              "Value": "OPEX"
            },
            {
              "Key": "Environment",
              "Value": "test-dev"
            },
            {
              "Key": "KubernetesCluster",
              "Value": "idem-test"
            },
            {
              "Key": "Name",
              "Value": "idem-test-db-subnet-group"
            }
          ]
        }
      ]
    },
    "idem_resource_id": "db-subnet-group-idem-test",
    "resource_path": "aws_db_subnet_group.db-subnet-group"
  },
  "aws.ec2.elastic_ip____15.236.223.139": {
    "resource": {
      "aws.ec2.elastic_ip.present": [
        {
          "name": "15.236.223.139"
        },
        {
          "resource_id": "15.236.223.139"
        },
        {
          "allocation_id": "eipalloc-0134ceb9112c887fd"
        },
        {
          "domain": "vpc"
        },
        {
          "network_border_group": "eu-west-3"
        },
        {
          "public_ipv4_pool": "amazon"
        },
        {
          "tags": [
            {
              "Key": "COGS",
              "Value": "OPEX"
            },
            {
              "Key": "Name",
              "Value": "idem-test-natgw-eip-0"
            },
            {
              "Key": "Owner",
              "Value": "org1"
            },
            {
              "Key": "Automation",
              "Value": "true"
            },
            {
              "Key": "KubernetesCluster",
              "Value": "idem-test"
            },
            {
              "Key": "Environment",
              "Value": "test-dev"
            }
          ]
        }
      ]
    },
    "idem_resource_id": "15.236.223.139",
    "resource_path": "aws_eip.nat_eip-0"
  },
  "aws.ec2.elastic_ip____13.37.173.220": {
    "resource": {
      "aws.ec2.elastic_ip.present": [
        {
          "name": "13.37.173.220"
        },
        {
          "resource_id": "13.37.173.220"
        },
        {
          "allocation_id": "eipalloc-001d4219447c325ca"
        },
        {
          "domain": "vpc"
        },
        {
          "network_border_group": "eu-west-3"
        },
        {
          "public_ipv4_pool": "amazon"
        },
        {
          "tags": [
            {
              "Key": "Owner",
              "Value": "org1"
            },
            {
              "Key": "Name",
              "Value": "idem-test-natgw-eip-1"
            },
            {
              "Key": "COGS",
              "Value": "OPEX"
            },
            {
              "Key": "Automation",
              "Value": "true"
            },
            {
              "Key": "Environment",
              "Value": "test-dev"
            },
            {
              "Key": "KubernetesCluster",
              "Value": "idem-test"
            }
          ]
        }
      ]
    },
    "idem_resource_id": "13.37.173.220",
    "resource_path": "aws_eip.nat_eip-1"
  },
  "aws.ec2.elastic_ip____13.38.205.2": {
    "resource": {
      "aws.ec2.elastic_ip.present": [
        {
          "name": "13.38.205.2"
        },
        {
          "resource_id": "13.38.205.2"
        },
        {
          "allocation_id": "eipalloc-01319ee06efe14298"
        },
        {
          "domain": "vpc"
        },
        {
          "network_border_group": "eu-west-3"
        },
        {
          "public_ipv4_pool": "amazon"
        },
        {
          "tags": [
            {
              "Key": "COGS",
              "Value": "OPEX"
            },
            {
              "Key": "Name",
              "Value": "idem-test-natgw-eip-2"
            },
            {
              "Key": "Owner",
              "Value": "org1"
            },
            {
              "Key": "Automation",
              "Value": "true"
            },
            {
              "Key": "Environment",
              "Value": "test-dev"
            },
            {
              "Key": "KubernetesCluster",
              "Value": "idem-test"
            }
          ]
        }
      ]
    },
    "idem_resource_id": "13.38.205.2",
    "resource_path": "aws_eip.nat_eip-2"
  },
  "aws.eks.cluster____idem-test": {
    "resource": {
      "aws.eks.cluster.present": [
        {
          "name": "idem-test"
        },
        {
          "resource_id": "idem-test"
        },
        {
          "role_arn": "arn:aws:iam::123456789012:role/idem-test-temp-xyz-cluster"
        },
        {
          "arn": "arn:aws:xyz:eu-west-3:123456789012:cluster/idem-test"
        },
        {
          "status": "ACTIVE"
        },
        {
          "version": "1.20"
        },
        {
          "resources_vpc_config": {
            "clusterSecurityGroupId": "sg-0f9910c81ca733164",
            "endpointPrivateAccess": false,
            "endpointPublicAccess": true,
            "publicAccessCidrs": [
              "0.0.0.0/0"
            ],
            "securityGroupIds": [
              "sg-070a797a4b433814b"
            ],
            "subnetIds": [
              "subnet-05dfaa0d01a337199",
              "subnet-0094b72dfb7ce6131",
              "subnet-050732fa4616470d9",
              "subnet-0d68d61b1ab708d42",
              "subnet-039e53122e038d38c",
              "subnet-09cecc8c853637d3b"
            ],
            "vpcId": "vpc-0738f2a523f4735bd"
          }
        },
        {
          "kubernetes_network_config": {
            "ipFamily": "ipv4",
            "serviceIpv4Cidr": "172.20.0.0/16"
          }
        },
        {
          "logging": {
            "clusterLogging": [
              {
                "enabled": true,
                "types": [
                  "api",
                  "audit",
                  "authenticator",
                  "controllerManager",
                  "scheduler"
                ]
              }
            ]
          }
        },
        {
          "tags": {
            "Automation": "true",
            "COGS": "OPEX",
            "Environment": "test-dev",
            "KubernetesCluster": "idem-test",
            "Owner": "org1"
          }
        }
      ]
    },
    "idem_resource_id": "idem-test",
    "resource_path": "aws_eks_cluster.cluster"
  },
  "aws.elasticache.cache_subnet_group____elasticache-subnet-group-idem-test": {
    "resource": {
      "aws.elasticache.cache_subnet_group.present": [
        {
          "name": "elasticache-subnet-group-idem-test"
        },
        {
          "resource_id": "elasticache-subnet-group-idem-test"
        },
        {
          "cache_subnet_group_description": "For elastcache redis cluster"
        },
        {
          "arn": "arn:aws:elasticache:eu-west-3:123456789012:subnetgroup:elasticache-subnet-group-idem-test"
        },
        {
          "subnet_ids": [
            "subnet-039e53122e038d38c",
            "subnet-05dfaa0d01a337199",
            "subnet-050732fa4616470d9"
          ]
        },
        {
          "tags": []
        }
      ]
    },
    "idem_resource_id": "elasticache-subnet-group-idem-test",
    "resource_path": "aws_elasticache_subnet_group.default"
  },
  "aws.ec2.flow_log____fl-0d8347dbe88a0027a": {
    "resource": {
      "aws.ec2.flow_log.present": [
        {
          "resource_ids": [
            "vpc-0738f2a523f4735bd"
          ]
        },
        {
          "resource_type": "VPC"
        },
        {
          "resource_id": "fl-0d8347dbe88a0027a"
        },
        {
          "iam_role": "arn:aws:iam::123456789012:role/xyz-idem-test_redlock_flow_role"
        },
        {
          "log_group_name": "xyz-idem-test_redlock_flow_log_group"
        },
        {
          "traffic_type": "ALL"
        },
        {
          "log_destination_type": "cloud-watch-logs"
        },
        {
          "log_destination": "arn:aws:logs:eu-west-3:123456789012:log-group:xyz-idem-test_redlock_flow_log_group"
        },
        {
          "log_format": "${version} ${account-id} ${interface-id} ${srcaddr} ${dstaddr} ${srcport} ${dstport} ${protocol} ${packets} ${bytes} ${start} ${end} ${action} ${log-status}"
        },
        {
          "max_aggregation_interval": 600
        },
        {
          "tags": []
        }
      ]
    },
    "idem_resource_id": "fl-0d8347dbe88a0027a",
    "resource_path": "aws_flow_log.redlock_flow_log"
  },
  "aws.iam.policy____arn:aws:iam::123456789012:policy/xyz-idem-test-jenkins": {
    "resource": {
      "aws.iam.policy.present": [
        {
          "policy_document": "{\"Statement\": [{\"Action\": \"xyz:DescribeCluster\", \"Effect\": \"Allow\", \"Resource\": \"arn:aws:xyz:eu-west-3:123456789012:cluster/idem-test\"}], \"Version\": \"2012-10-17\"}"
        },
        {
          "default_version_id": "v1"
        },
        {
          "tags": []
        },
        {
          "name": "xyz-idem-test-jenkins"
        },
        {
          "resource_id": "arn:aws:iam::123456789012:policy/xyz-idem-test-jenkins"
        },
        {
          "id": "ANPAX2FJ77DCWXVXTSXMQ"
        },
        {
          "path": "/"
        }
      ]
    },
    "idem_resource_id": "arn:aws:iam::123456789012:policy/xyz-idem-test-jenkins",
    "resource_path": "aws_iam_policy.xyz-jenkins"
  },
  "aws.iam.role____idem-test-temp-xyz-cluster": {
    "resource": {
      "aws.iam.role.present": [
        {
          "resource_id": "idem-test-temp-xyz-cluster"
        },
        {
          "name": "idem-test-temp-xyz-cluster"
        },
        {
          "arn": "arn:aws:iam::123456789012:role/idem-test-temp-xyz-cluster"
        },
        {
          "id": "AROAX2FJ77DC2JM67OZSY"
        },
        {
          "path": "/"
        },
        {
          "max_session_duration": 3600
        },
        {
          "tags": [
            {
              "Key": "Owner",
              "Value": "org1"
            },
            {
              "Key": "COGS",
              "Value": "OPEX"
            },
            {
              "Key": "Environment",
              "Value": "test-dev"
            },
            {
              "Key": "KubernetesCluster",
              "Value": "idem-test"
            },
            {
              "Key": "Automation",
              "Value": "true"
            }
          ]
        },
        {
          "assume_role_policy_document": "{\"Statement\": [{\"Action\": \"sts:AssumeRole\", \"Effect\": \"Allow\", \"Principal\": {\"Service\": \"xyz.amazonaws.com\"}}], \"Version\": \"2012-10-17\"}"
        }
      ]
    },
    "idem_resource_id": "idem-test-temp-xyz-cluster",
    "resource_path": "aws_iam_role.cluster"
  },
  "aws.iam.role____xyz-idem-test-jenkins": {
    "resource": {
      "aws.iam.role.present": [
        {
          "resource_id": "xyz-idem-test-jenkins"
        },
        {
          "name": "xyz-idem-test-jenkins"
        },
        {
          "arn": "arn:aws:iam::123456789012:role/xyz-idem-test-jenkins"
        },
        {
          "id": "AROAX2FJ77DCQHIULDKIS"
        },
        {
          "path": "/"
        },
        {
          "max_session_duration": 3600
        },
        {
          "tags": [
            {
              "Key": "KubernetesCluster",
              "Value": "idem-test"
            },
            {
              "Key": "Automation",
              "Value": "true"
            },
            {
              "Key": "Environment",
              "Value": "test-dev"
            },
            {
              "Key": "Owner",
              "Value": "org1"
            },
            {
              "Key": "COGS",
              "Value": "OPEX"
            }
          ]
        },
        {
          "assume_role_policy_document": "{\"Statement\": [{\"Action\": \"sts:AssumeRole\", \"Condition\": {\"ForAnyValue:StringEquals\": {\"aws:username\": [\"user1\", \"user2\", \"user3\", \"user4\", \"user5\"]}}, \"Effect\": \"Allow\", \"Principal\": {\"AWS\": \"arn:aws:iam::123456789012:root\"}}, {\"Action\": \"sts:AssumeRole\", \"Effect\": \"Allow\", \"Principal\": {\"AWS\": \"arn:aws:iam::123456789012:user/xyz/idem-test/extension-jenkins-idem-test\"}}], \"Version\": \"2012-10-17\"}"
        }
      ]
    },
    "idem_resource_id": "xyz-idem-test-jenkins",
    "resource_path": "aws_iam_role.xyz-jenkins"
  },
  "aws.iam.role____xyz-idem-test_redlock_flow_role": {
    "resource": {
      "aws.iam.role.present": [
        {
          "resource_id": "xyz-idem-test_redlock_flow_role"
        },
        {
          "name": "xyz-idem-test_redlock_flow_role"
        },
        {
          "arn": "arn:aws:iam::123456789012:role/xyz-idem-test_redlock_flow_role"
        },
        {
          "id": "AROAX2FJ77DC7NUDJJ6DH"
        },
        {
          "path": "/"
        },
        {
          "max_session_duration": 3600
        },
        {
          "tags": [
            {
              "Key": "Owner",
              "Value": "org1"
            },
            {
              "Key": "Automation",
              "Value": "true"
            },
            {
              "Key": "Environment",
              "Value": "test-dev"
            },
            {
              "Key": "KubernetesCluster",
              "Value": "idem-test"
            },
            {
              "Key": "COGS",
              "Value": "OPEX"
            }
          ]
        },
        {
          "assume_role_policy_document": "{\"Statement\": [{\"Action\": \"sts:AssumeRole\", \"Effect\": \"Allow\", \"Principal\": {\"Service\": \"vpc-flow-logs.amazonaws.com\"}, \"Sid\": \"\"}], \"Version\": \"2012-10-17\"}"
        }
      ]
    },
    "idem_resource_id": "xyz-idem-test_redlock_flow_role",
    "resource_path": "aws_iam_role.redlock_flow_role"
  },
  "aws.iam.role_policy____xyz-idem-test_redlock_flow_role:xyz-idem-test_redlock_flow_policy": {
    "resource": {
      "aws.iam.role_policy.present": [
        {
          "resource_id": "xyz-idem-test_redlock_flow_role-xyz-idem-test_redlock_flow_policy"
        },
        {
          "role_name": "xyz-idem-test_redlock_flow_role"
        },
        {
          "name": "xyz-idem-test_redlock_flow_policy"
        },
        {
          "policy_document": "{\"Statement\": [{\"Action\": [\"logs:CreateLogGroup\", \"logs:CreateLogStream\", \"logs:PutLogEvents\", \"logs:DescribeLogGroups\", \"logs:DescribeLogStreams\"], \"Effect\": \"Allow\", \"Resource\": \"*\"}], \"Version\": \"2012-10-17\"}"
        }
      ]
    },
    "idem_resource_id": "xyz-idem-test_redlock_flow_role-xyz-idem-test_redlock_flow_policy",
    "resource_path": "aws_iam_role_policy.redlock_flow_policy"
  },
  "aws.iam.role_policy_attachment____idem-test-temp-xyz-cluster:arn:aws:iam::aws:policy/AmazonxyzClusterPolicy": {
    "resource": {
      "aws.iam.role_policy_attachment.present": [
        {
          "role_name": "idem-test-temp-xyz-cluster"
        },
        {
          "policy_arn": "arn:aws:iam::aws:policy/AmazonxyzClusterPolicy"
        }
      ]
    },
    "idem_resource_id": "idem-test-temp-xyz-cluster-arn:aws:iam::aws:policy/AmazonxyzClusterPolicy",
    "resource_path": "aws_iam_role_policy_attachment.cluster-AmazonxyzClusterPolicy"
  },
  "aws.iam.role_policy_attachment____idem-test-temp-xyz-cluster:arn:aws:iam::aws:policy/AmazonxyzServicePolicy": {
    "resource": {
      "aws.iam.role_policy_attachment.present": [
        {
          "role_name": "idem-test-temp-xyz-cluster"
        },
        {
          "policy_arn": "arn:aws:iam::aws:policy/AmazonxyzServicePolicy"
        }
      ]
    },
    "idem_resource_id": "idem-test-temp-xyz-cluster-arn:aws:iam::aws:policy/AmazonxyzServicePolicy",
    "resource_path": "aws_iam_role_policy_attachment.cluster-AmazonxyzServicePolicy"
  },
  "aws.iam.role_policy_attachment____xyz-idem-test-jenkins:arn:aws:iam::123456789012:policy/xyz-idem-test-jenkins": {
    "resource": {
      "aws.iam.role_policy_attachment.present": [
        {
          "role_name": "xyz-idem-test-jenkins"
        },
        {
          "policy_arn": "arn:aws:iam::123456789012:policy/xyz-idem-test-jenkins"
        }
      ]
    },
    "idem_resource_id": "xyz-idem-test-jenkins-arn:aws:iam::123456789012:policy/xyz-idem-test-jenkins",
    "resource_path": "aws_iam_role_policy_attachment.xyz-jenkins"
  },
  "aws.iam.user____extension-jenkins-idem-test": {
    "resource": {
      "aws.iam.user.present": [
        {
          "name": "extension-jenkins-idem-test"
        },
        {
          "resource_id": "extension-jenkins-idem-test"
        },
        {
          "arn": "arn:aws:iam::123456789012:user/xyz/idem-test/extension-jenkins-idem-test"
        },
        {
          "path": "/xyz/idem-test/"
        },
        {
          "tags": [
            {
              "Key": "COGS",
              "Value": "OPEX"
            },
            {
              "Key": "Owner",
              "Value": "org1"
            },
            {
              "Key": "Automation",
              "Value": "true"
            },
            {
              "Key": "Environment",
              "Value": "test-dev"
            },
            {
              "Key": "KubernetesCluster",
              "Value": "idem-test"
            }
          ]
        },
        {
          "user_name": "extension-jenkins-idem-test"
        }
      ]
    },
    "idem_resource_id": "extension-jenkins-idem-test",
    "resource_path": "aws_iam_user.extension-jenkins"
  },
  "aws.iam.user_policy____extension-jenkins-idem-test:extension-jenkins-idem-test": {
    "resource": {
      "aws.iam.user_policy.present": [
        {
          "resource_id": "extension-jenkins-idem-test-extension-jenkins-idem-test"
        },
        {
          "user_name": "extension-jenkins-idem-test"
        },
        {
          "name": "extension-jenkins-idem-test"
        },
        {
          "policy_document": "{\"Statement\": [{\"Action\": [\"xyz:DescribeCluster\"], \"Effect\": \"Allow\", \"Resource\": \"arn:aws:xyz:eu-west-3:123456789012:cluster/idem-test\"}, {\"Action\": [\"sts:AssumeRole\"], \"Effect\": \"Allow\", \"Resource\": [\"arn:aws:iam::123456789012:role/xyz-idem-test-jenkins\"], \"Sid\": \"\"}, {\"Action\": \"s3:*\", \"Effect\": \"Allow\", \"Resource\": [\"arn:aws:s3:::ssm-ansible-test-dev\", \"arn:aws:s3:::ssm-ansible-test-dev/*\"], \"Sid\": \"\"}, {\"Action\": [\"ssm:StartSession\"], \"Condition\": {\"StringLike\": {\"ssm:resourceTag/KubernetesCluster\": [\"idem-test\"]}}, \"Effect\": \"Allow\", \"Resource\": \"*\"}, {\"Action\": [\"ssm:TerminateSession\"], \"Effect\": \"Allow\", \"Resource\": \"*\"}], \"Version\": \"2012-10-17\"}"
        }
      ]
    },
    "idem_resource_id": "extension-jenkins-idem-test-extension-jenkins-idem-test",
    "resource_path": "aws_iam_user_policy.extension-jenkins"
  },
  "aws.iam.user_policy____extension-jenkins-idem-test:extension-jenkins-rolling-upgrade-idem-test": {
    "resource": {
      "aws.iam.user_policy.present": [
        {
          "resource_id": "extension-jenkins-idem-test-extension-jenkins-rolling-upgrade-idem-test"
        },
        {
          "user_name": "extension-jenkins-idem-test"
        },
        {
          "name": "extension-jenkins-rolling-upgrade-idem-test"
        },
        {
          "policy_document": "{\"Statement\": [{\"Action\": \"ec2:Describe*\", \"Effect\": \"Allow\", \"Resource\": \"*\"}, {\"Action\": [\"sts:AssumeRole\"], \"Effect\": \"Allow\", \"Resource\": [\"arn:aws:iam::123456789012:role/xyz-idem-test-jenkins\"], \"Sid\": \"\"}, {\"Action\": [\"autoscaling:DeleteTags\", \"autoscaling:ResumeProcesses\", \"autoscaling:CreateOrUpdateTags\", \"autoscaling:UpdateAutoScalingGroup\", \"autoscaling:SuspendProcesses\", \"autoscaling:TerminateInstanceInAutoScalingGroup\"], \"Condition\": {\"StringEquals\": {\"autoscaling:ResourceTag/KubernetesCluster\": \"idem-test\"}}, \"Effect\": \"Allow\", \"Resource\": \"*\", \"Sid\": \"\"}, {\"Action\": [\"xyz:UpdateClusterVersion\", \"ec2:DescribeInstances\", \"ec2:RebootInstances\", \"autoscaling:DescribeAutoScalingGroups\", \"xyz:DescribeUpdate\", \"xyz:DescribeCluster\", \"xyz:ListClusters\", \"xyz:CreateCluster\"], \"Effect\": \"Allow\", \"Resource\": \"*\", \"Sid\": \"\"}, {\"Action\": \"ec2:DescribeInstances\", \"Effect\": \"Allow\", \"Resource\": \"*\", \"Sid\": \"\"}], \"Version\": \"2012-10-17\"}"
        }
      ]
    },
    "idem_resource_id": "extension-jenkins-idem-test-extension-jenkins-rolling-upgrade-idem-test",
    "resource_path": "aws_iam_user_policy.extension-jenkins-rolling-upgrade"
  },
  "aws.ec2.internet_gateway____igw-0eee9bba485b312a8": {
    "resource": {
      "aws.ec2.internet_gateway.present": [
        {
          "attachments": [
            {
              "State": "available",
              "VpcId": "vpc-0738f2a523f4735bd"
            }
          ],
          "name": "igw-0eee9bba485b312a8",
          "resource_id": "igw-0eee9bba485b312a8",
          "tags": [
            {
              "Key": "Name",
              "Value": "idem-test-temp-xyz"
            },
            {
              "Key": "COGS",
              "Value": "OPEX"
            },
            {
              "Key": "Automation",
              "Value": "true"
            },
            {
              "Key": "Owner",
              "Value": "org1"
            },
            {
              "Key": "KubernetesCluster",
              "Value": "idem-test"
            },
            {
              "Key": "Environment",
              "Value": "test-dev"
            }
          ],
          "vpc_id": [
            "vpc-0738f2a523f4735bd"
          ]
        }
      ]
    },
    "idem_resource_id": "igw-0eee9bba485b312a8",
    "resource_path": "aws_internet_gateway.cluster"
  },
  "aws.ec2.nat_gateway____nat-0a49a65a4bb87370a": {
    "resource": {
      "aws.ec2.nat_gateway.present": [
        {
          "name": "nat-0a49a65a4bb87370a"
        },
        {
          "resource_id": "nat-0a49a65a4bb87370a"
        },
        {
          "subnet_id": "subnet-09cecc8c853637d3b"
        },
        {
          "connectivity_type": "public"
        },
        {
          "tags": [
            {
              "Key": "Environment",
              "Value": "test-dev"
            },
            {
              "Key": "Automation",
              "Value": "true"
            },
            {
              "Key": "Owner",
              "Value": "org1"
            },
            {
              "Key": "KubernetesCluster",
              "Value": "idem-test"
            },
            {
              "Key": "COGS",
              "Value": "OPEX"
            },
            {
              "Key": "Name",
              "Value": "idem-test-natgw-0"
            }
          ]
        },
        {
          "state": "available"
        },
        {
          "allocation_id": "eipalloc-0134ceb9112c887fd"
        }
      ]
    },
    "idem_resource_id": "nat-0a49a65a4bb87370a",
    "resource_path": "aws_nat_gateway.nat_gateway-0"
  },
  "aws.ec2.nat_gateway____nat-0c02a1f1d590b5534": {
    "resource": {
      "aws.ec2.nat_gateway.present": [
        {
          "name": "nat-0c02a1f1d590b5534"
        },
        {
          "resource_id": "nat-0c02a1f1d590b5534"
        },
        {
          "subnet_id": "subnet-0094b72dfb7ce6131"
        },
        {
          "connectivity_type": "public"
        },
        {
          "tags": [
            {
              "Key": "Environment",
              "Value": "test-dev"
            },
            {
              "Key": "Automation",
              "Value": "true"
            },
            {
              "Key": "Owner",
              "Value": "org1"
            },
            {
              "Key": "KubernetesCluster",
              "Value": "idem-test"
            },
            {
              "Key": "COGS",
              "Value": "OPEX"
            },
            {
              "Key": "Name",
              "Value": "idem-test-natgw-1"
            }
          ]
        },
        {
          "state": "available"
        },
        {
          "allocation_id": "eipalloc-001d4219447c325ca"
        }
      ]
    },
    "idem_resource_id": "nat-0c02a1f1d590b5534",
    "resource_path": "aws_nat_gateway.nat_gateway-1"
  },
  "aws.ec2.nat_gateway____nat-076cd14a28acd21b4": {
    "resource": {
      "aws.ec2.nat_gateway.present": [
        {
          "name": "nat-076cd14a28acd21b4"
        },
        {
          "resource_id": "nat-076cd14a28acd21b4"
        },
        {
          "subnet_id": "subnet-0d68d61b1ab708d42"
        },
        {
          "connectivity_type": "public"
        },
        {
          "tags": [
            {
              "Key": "Environment",
              "Value": "test-dev"
            },
            {
              "Key": "Automation",
              "Value": "true"
            },
            {
              "Key": "Owner",
              "Value": "org1"
            },
            {
              "Key": "KubernetesCluster",
              "Value": "idem-test"
            },
            {
              "Key": "COGS",
              "Value": "OPEX"
            },
            {
              "Key": "Name",
              "Value": "idem-test-natgw-2"
            }
          ]
        },
        {
          "state": "available"
        },
        {
          "allocation_id": "eipalloc-01319ee06efe14298"
        }
      ]
    },
    "idem_resource_id": "nat-076cd14a28acd21b4",
    "resource_path": "aws_nat_gateway.nat_gateway-2"
  },
  "aws.route53.hosted_zone_association____Z0721725PI001CQXUGYY:vpc-0738f2a523f4735bd:eu-west-3": {
    "resource": {
      "aws.route53.hosted_zone_association.present": [
        {
          "resource_id": "Z0721725PI001CQXUGYY:vpc-0738f2a523f4735bd:eu-west-3"
        },
        {
          "name": "Z0721725PI001CQXUGYY:vpc-0738f2a523f4735bd:eu-west-3"
        },
        {
          "zone_id": "Z0721725PI001CQXUGYY"
        },
        {
          "vpc_id": "vpc-0738f2a523f4735bd"
        },
        {
          "vpc_region": "eu-west-3"
        },
        {
          "comment": null
        }
      ]
    },
    "idem_resource_id": "Z0721725PI001CQXUGYY:vpc-0738f2a523f4735bd:eu-west-3",
    "resource_path": "aws_route53_zone_association.internal-potato-beachops-io"
  },
  "aws.route53.hosted_zone_association____Z03616682JNY9P3D3T2IR:vpc-0738f2a523f4735bd:eu-west-3": {
    "resource": {
      "aws.route53.hosted_zone_association.present": [
        {
          "resource_id": "Z03616682JNY9P3D3T2IR:vpc-0738f2a523f4735bd:eu-west-3"
        },
        {
          "name": "Z03616682JNY9P3D3T2IR:vpc-0738f2a523f4735bd:eu-west-3"
        },
        {
          "zone_id": "Z03616682JNY9P3D3T2IR"
        },
        {
          "vpc_id": "vpc-0738f2a523f4735bd"
        },
        {
          "vpc_region": "eu-west-3"
        },
        {
          "comment": null
        }
      ]
    },
    "idem_resource_id": "Z03616682JNY9P3D3T2IR:vpc-0738f2a523f4735bd:eu-west-3",
    "resource_path": "aws_route53_zone_association.msk_kafka_domain"
  },
  "aws.ec2.route_table____rtb-0516e0e06d933d9f4": {
    "resource": {
      "aws.ec2.route_table.present": [
        {
          "associations": [
            {
              "AssociationState": {
                "State": "associated"
              },
              "Main": false,
              "RouteTableAssociationId": "rtbassoc-080a96c3caa4d67bc",
              "RouteTableId": "rtb-0516e0e06d933d9f4",
              "SubnetId": "subnet-050732fa4616470d9"
            }
          ],
          "name": "rtb-0516e0e06d933d9f4",
          "propagating_vgws": [],
          "resource_id": "rtb-0516e0e06d933d9f4",
          "routes": [
            {
              "DestinationCidrBlock": "10.170.0.0/16",
              "GatewayId": "local",
              "Origin": "CreateRouteTable",
              "State": "active"
            },
            {
              "DestinationCidrBlock": "0.0.0.0/0",
              "NatGatewayId": "nat-0a49a65a4bb87370a",
              "Origin": "CreateRoute",
              "State": "active"
            }
          ],
          "tags": [
            {
              "Key": "COGS",
              "Value": "OPEX"
            },
            {
              "Key": "Environment",
              "Value": "test-dev"
            },
            {
              "Key": "KubernetesCluster",
              "Value": "idem-test"
            },
            {
              "Key": "Name",
              "Value": "idem-test-xyz-private-0"
            },
            {
              "Key": "Owner",
              "Value": "org1"
            },
            {
              "Key": "Automation",
              "Value": "true"
            }
          ],
          "vpc_id": "vpc-0738f2a523f4735bd"
        }
      ]
    },
    "idem_resource_id": "rtb-0516e0e06d933d9f4",
    "resource_path": "aws_route_table.cluster-0"
  },
  "aws.ec2.route_table____rtb-0ee77d1deb1a1d86a": {
    "resource": {
      "aws.ec2.route_table.present": [
        {
          "associations": [
            {
              "AssociationState": {
                "State": "associated"
              },
              "Main": false,
              "RouteTableAssociationId": "rtbassoc-0832ce3bb146df047",
              "RouteTableId": "rtb-0ee77d1deb1a1d86a",
              "SubnetId": "subnet-05dfaa0d01a337199"
            }
          ],
          "name": "rtb-0ee77d1deb1a1d86a",
          "propagating_vgws": [],
          "resource_id": "rtb-0ee77d1deb1a1d86a",
          "routes": [
            {
              "DestinationCidrBlock": "10.170.0.0/16",
              "GatewayId": "local",
              "Origin": "CreateRouteTable",
              "State": "active"
            },
            {
              "DestinationCidrBlock": "0.0.0.0/0",
              "NatGatewayId": "nat-0c02a1f1d590b5534",
              "Origin": "CreateRoute",
              "State": "active"
            }
          ],
          "tags": [
            {
              "Key": "Owner",
              "Value": "org1"
            },
            {
              "Key": "KubernetesCluster",
              "Value": "idem-test"
            },
            {
              "Key": "Name",
              "Value": "idem-test-xyz-private-1"
            },
            {
              "Key": "Environment",
              "Value": "test-dev"
            },
            {
              "Key": "COGS",
              "Value": "OPEX"
            },
            {
              "Key": "Automation",
              "Value": "true"
            }
          ],
          "vpc_id": "vpc-0738f2a523f4735bd"
        }
      ]
    },
    "idem_resource_id": "rtb-0ee77d1deb1a1d86a",
    "resource_path": "aws_route_table.cluster-1"
  },
  "aws.ec2.route_table____rtb-0b0a3c628c59ac049": {
    "resource": {
      "aws.ec2.route_table.present": [
        {
          "associations": [
            {
              "AssociationState": {
                "State": "associated"
              },
              "Main": false,
              "RouteTableAssociationId": "rtbassoc-0ef8af8654a7c1fb3",
              "RouteTableId": "rtb-0b0a3c628c59ac049",
              "SubnetId": "subnet-039e53122e038d38c"
            }
          ],
          "name": "rtb-0b0a3c628c59ac049",
          "propagating_vgws": [],
          "resource_id": "rtb-0b0a3c628c59ac049",
          "routes": [
            {
              "DestinationCidrBlock": "10.170.0.0/16",
              "GatewayId": "local",
              "Origin": "CreateRouteTable",
              "State": "active"
            },
            {
              "DestinationCidrBlock": "0.0.0.0/0",
              "NatGatewayId": "nat-076cd14a28acd21b4",
              "Origin": "CreateRoute",
              "State": "active"
            }
          ],
          "tags": [
            {
              "Key": "COGS",
              "Value": "OPEX"
            },
            {
              "Key": "Owner",
              "Value": "org1"
            },
            {
              "Key": "Name",
              "Value": "idem-test-xyz-private-2"
            },
            {
              "Key": "Environment",
              "Value": "test-dev"
            },
            {
              "Key": "Automation",
              "Value": "true"
            },
            {
              "Key": "KubernetesCluster",
              "Value": "idem-test"
            }
          ],
          "vpc_id": "vpc-0738f2a523f4735bd"
        }
      ]
    },
    "idem_resource_id": "rtb-0b0a3c628c59ac049",
    "resource_path": "aws_route_table.cluster-2"
  },
  "aws.ec2.route_table____rtb-01e542a8c56c9511f": {
    "resource": {
      "aws.ec2.route_table.present": [
        {
          "associations": [
            {
              "AssociationState": {
                "State": "associated"
              },
              "Main": false,
              "RouteTableAssociationId": "rtbassoc-0f2b91e5f78d7af47",
              "RouteTableId": "rtb-01e542a8c56c9511f",
              "SubnetId": "subnet-09cecc8c853637d3b"
            }
          ],
          "name": "rtb-01e542a8c56c9511f",
          "propagating_vgws": [],
          "resource_id": "rtb-01e542a8c56c9511f",
          "routes": [
            {
              "DestinationCidrBlock": "10.170.0.0/16",
              "GatewayId": "local",
              "Origin": "CreateRouteTable",
              "State": "active"
            },
            {
              "DestinationCidrBlock": "0.0.0.0/0",
              "GatewayId": "igw-0eee9bba485b312a8",
              "Origin": "CreateRoute",
              "State": "active"
            }
          ],
          "tags": [
            {
              "Key": "Environment",
              "Value": "test-dev"
            },
            {
              "Key": "Name",
              "Value": "idem-test-xyz-public-0"
            },
            {
              "Key": "Automation",
              "Value": "true"
            },
            {
              "Key": "COGS",
              "Value": "OPEX"
            },
            {
              "Key": "Owner",
              "Value": "org1"
            },
            {
              "Key": "KubernetesCluster",
              "Value": "idem-test"
            }
          ],
          "vpc_id": "vpc-0738f2a523f4735bd"
        }
      ]
    },
    "idem_resource_id": "rtb-01e542a8c56c9511f",
    "resource_path": "aws_route_table.xyz_public-0"
  },
  "aws.ec2.route_table____rtb-0445912793473da66": {
    "resource": {
      "aws.ec2.route_table.present": [
        {
          "associations": [
            {
              "AssociationState": {
                "State": "associated"
              },
              "Main": false,
              "RouteTableAssociationId": "rtbassoc-05b12a843fea97f87",
              "RouteTableId": "rtb-0445912793473da66",
              "SubnetId": "subnet-0094b72dfb7ce6131"
            }
          ],
          "name": "rtb-0445912793473da66",
          "propagating_vgws": [],
          "resource_id": "rtb-0445912793473da66",
          "routes": [
            {
              "DestinationCidrBlock": "10.170.0.0/16",
              "GatewayId": "local",
              "Origin": "CreateRouteTable",
              "State": "active"
            },
            {
              "DestinationCidrBlock": "0.0.0.0/0",
              "GatewayId": "igw-0eee9bba485b312a8",
              "Origin": "CreateRoute",
              "State": "active"
            }
          ],
          "tags": [
            {
              "Key": "Name",
              "Value": "idem-test-xyz-public-1"
            },
            {
              "Key": "COGS",
              "Value": "OPEX"
            },
            {
              "Key": "Automation",
              "Value": "true"
            },
            {
              "Key": "Environment",
              "Value": "test-dev"
            },
            {
              "Key": "KubernetesCluster",
              "Value": "idem-test"
            },
            {
              "Key": "Owner",
              "Value": "org1"
            }
          ],
          "vpc_id": "vpc-0738f2a523f4735bd"
        }
      ]
    },
    "idem_resource_id": "rtb-0445912793473da66",
    "resource_path": "aws_route_table.xyz_public-1"
  },
  "aws.ec2.route_table____rtb-05bd8f7251c25d82c": {
    "resource": {
      "aws.ec2.route_table.present": [
        {
          "associations": [
            {
              "AssociationState": {
                "State": "associated"
              },
              "Main": false,
              "RouteTableAssociationId": "rtbassoc-0e7f80eb1863284da",
              "RouteTableId": "rtb-05bd8f7251c25d82c",
              "SubnetId": "subnet-0d68d61b1ab708d42"
            }
          ],
          "name": "rtb-05bd8f7251c25d82c",
          "propagating_vgws": [],
          "resource_id": "rtb-05bd8f7251c25d82c",
          "routes": [
            {
              "DestinationCidrBlock": "10.170.0.0/16",
              "GatewayId": "local",
              "Origin": "CreateRouteTable",
              "State": "active"
            },
            {
              "DestinationCidrBlock": "0.0.0.0/0",
              "GatewayId": "igw-0eee9bba485b312a8",
              "Origin": "CreateRoute",
              "State": "active"
            }
          ],
          "tags": [
            {
              "Key": "KubernetesCluster",
              "Value": "idem-test"
            },
            {
              "Key": "Owner",
              "Value": "org1"
            },
            {
              "Key": "COGS",
              "Value": "OPEX"
            },
            {
              "Key": "Automation",
              "Value": "true"
            },
            {
              "Key": "Name",
              "Value": "idem-test-xyz-public-2"
            },
            {
              "Key": "Environment",
              "Value": "test-dev"
            }
          ],
          "vpc_id": "vpc-0738f2a523f4735bd"
        }
      ]
    },
    "idem_resource_id": "rtb-05bd8f7251c25d82c",
    "resource_path": "aws_route_table.xyz_public-2"
  },
  "aws.ec2.security_group____sg-070a797a4b433814b": {
    "resource": {
      "aws.ec2.security_group.present": [
        {
          "resource_id": "sg-070a797a4b433814b"
        },
        {
          "name": "idem-test-temp-xyz-cluster"
        },
        {
          "vpc_id": "vpc-0738f2a523f4735bd"
        },
        {
          "tags": [
            {
              "Key": "Environment",
              "Value": "test-dev"
            },
            {
              "Key": "Automation",
              "Value": "true"
            },
            {
              "Key": "KubernetesCluster",
              "Value": "idem-test"
            },
            {
              "Key": "COGS",
              "Value": "OPEX"
            },
            {
              "Key": "Name",
              "Value": "idem-test-temp-xyz"
            },
            {
              "Key": "Owner",
              "Value": "org1"
            }
          ]
        },
        {
          "description": "Cluster communication with worker nodes"
        }
      ]
    },
    "idem_resource_id": "sg-070a797a4b433814b",
    "resource_path": "aws_security_group.cluster"
  },
  "aws.ec2.security_group____sg-02b4fa0698eaa06cf": {
    "resource": {
      "aws.ec2.security_group.present": [
        {
          "resource_id": "sg-02b4fa0698eaa06cf"
        },
        {
          "name": "idem-test-temp-xyz-cluster-node"
        },
        {
          "vpc_id": "vpc-0738f2a523f4735bd"
        },
        {
          "tags": [
            {
              "Key": "cluster",
              "Value": "xyz"
            },
            {
              "Key": "Environment",
              "Value": "test-dev"
            },
            {
              "Key": "Name",
              "Value": "idem-test-temp-xyz-cluster-node"
            },
            {
              "Key": "KubernetesCluster",
              "Value": "idem-test"
            },
            {
              "Key": "role",
              "Value": "xyz-worker"
            },
            {
              "Key": "kubernetes.io/cluster/idem-test",
              "Value": "owned"
            },
            {
              "Key": "Owner",
              "Value": "org1"
            },
            {
              "Key": "Automation",
              "Value": "true"
            },
            {
              "Key": "COGS",
              "Value": "OPEX"
            }
          ]
        },
        {
          "description": "Security group for all nodes in the cluster"
        }
      ]
    },
    "idem_resource_id": "sg-02b4fa0698eaa06cf",
    "resource_path": "aws_security_group.cluster-node"
  },
  "aws.ec2.security_group____sg-06552329287f9b206": {
    "resource": {
      "aws.ec2.security_group.present": [
        {
          "resource_id": "sg-06552329287f9b206"
        },
        {
          "name": "temp-20220505111435890800000003"
        },
        {
          "vpc_id": "vpc-0738f2a523f4735bd"
        },
        {
          "tags": [
            {
              "Key": "Name",
              "Value": "idem-test-nessus_vuln_scanner"
            }
          ]
        },
        {
          "description": "nessus scanner"
        }
      ]
    },
    "idem_resource_id": "sg-06552329287f9b206",
    "resource_path": "aws_security_group.nessus_vuln_scanner"
  },
  "aws.ec2.subnet____subnet-050732fa4616470d9": {
    "resource": {
      "aws.ec2.subnet.present": [
        {
          "name": "subnet-050732fa4616470d9"
        },
        {
          "resource_id": "subnet-050732fa4616470d9"
        },
        {
          "vpc_id": "vpc-0738f2a523f4735bd"
        },
        {
          "cidr_block": "10.170.0.0/18"
        },
        {
          "availability_zone": "eu-west-3a"
        },
        {
          "tags": [
            {
              "Key": "COGS",
              "Value": "OPEX"
            },
            {
              "Key": "Name",
              "Value": "idem-test-temp-xyz-node-private"
            },
            {
              "Key": "kubernetes.io/role/internal-elb",
              "Value": "1"
            },
            {
              "Key": "Environment",
              "Value": "test-dev"
            },
            {
              "Key": "Automation",
              "Value": "true"
            },
            {
              "Key": "KubernetesCluster",
              "Value": "idem-test"
            },
            {
              "Key": "kubernetes.io/cluster/idem-test",
              "Value": "shared"
            },
            {
              "Key": "Owner",
              "Value": "org1"
            }
          ]
        }
      ]
    },
    "idem_resource_id": "subnet-050732fa4616470d9",
    "resource_path": "aws_subnet.cluster-0"
  },
  "aws.ec2.subnet____subnet-05dfaa0d01a337199": {
    "resource": {
      "aws.ec2.subnet.present": [
        {
          "name": "subnet-05dfaa0d01a337199"
        },
        {
          "resource_id": "subnet-05dfaa0d01a337199"
        },
        {
          "vpc_id": "vpc-0738f2a523f4735bd"
        },
        {
          "cidr_block": "10.170.64.0/18"
        },
        {
          "availability_zone": "eu-west-3b"
        },
        {
          "tags": [
            {
              "Key": "Automation",
              "Value": "true"
            },
            {
              "Key": "kubernetes.io/cluster/idem-test",
              "Value": "shared"
            },
            {
              "Key": "KubernetesCluster",
              "Value": "idem-test"
            },
            {
              "Key": "Environment",
              "Value": "test-dev"
            },
            {
              "Key": "COGS",
              "Value": "OPEX"
            },
            {
              "Key": "kubernetes.io/role/internal-elb",
              "Value": "1"
            },
            {
              "Key": "Owner",
              "Value": "org1"
            },
            {
              "Key": "Name",
              "Value": "idem-test-temp-xyz-node-private"
            }
          ]
        }
      ]
    },
    "idem_resource_id": "subnet-05dfaa0d01a337199",
    "resource_path": "aws_subnet.cluster-1"
  },
  "aws.ec2.subnet____subnet-039e53122e038d38c": {
    "resource": {
      "aws.ec2.subnet.present": [
        {
          "name": "subnet-039e53122e038d38c"
        },
        {
          "resource_id": "subnet-039e53122e038d38c"
        },
        {
          "vpc_id": "vpc-0738f2a523f4735bd"
        },
        {
          "cidr_block": "10.170.128.0/18"
        },
        {
          "availability_zone": "eu-west-3c"
        },
        {
          "tags": [
            {
              "Key": "Automation",
              "Value": "true"
            },
            {
              "Key": "KubernetesCluster",
              "Value": "idem-test"
            },
            {
              "Key": "Environment",
              "Value": "test-dev"
            },
            {
              "Key": "kubernetes.io/cluster/idem-test",
              "Value": "shared"
            },
            {
              "Key": "kubernetes.io/role/internal-elb",
              "Value": "1"
            },
            {
              "Key": "COGS",
              "Value": "OPEX"
            },
            {
              "Key": "Name",
              "Value": "idem-test-temp-xyz-node-private"
            },
            {
              "Key": "Owner",
              "Value": "org1"
            }
          ]
        }
      ]
    },
    "idem_resource_id": "subnet-039e53122e038d38c",
    "resource_path": "aws_subnet.cluster-2"
  },
  "aws.ec2.subnet____subnet-09cecc8c853637d3b": {
    "resource": {
      "aws.ec2.subnet.present": [
        {
          "name": "subnet-09cecc8c853637d3b"
        },
        {
          "resource_id": "subnet-09cecc8c853637d3b"
        },
        {
          "vpc_id": "vpc-0738f2a523f4735bd"
        },
        {
          "cidr_block": "10.170.192.0/20"
        },
        {
          "availability_zone": "eu-west-3a"
        },
        {
          "tags": [
            {
              "Key": "kubernetes.io/cluster/idem-test",
              "Value": "shared"
            },
            {
              "Key": "Name",
              "Value": "idem-test-temp-xyz-control-public"
            },
            {
              "Key": "Environment",
              "Value": "test-dev"
            },
            {
              "Key": "kubernetes.io/role/elb",
              "Value": "1"
            },
            {
              "Key": "Automation",
              "Value": "true"
            },
            {
              "Key": "KubernetesCluster",
              "Value": "idem-test"
            },
            {
              "Key": "COGS",
              "Value": "OPEX"
            },
            {
              "Key": "Owner",
              "Value": "org1"
            }
          ]
        }
      ]
    },
    "idem_resource_id": "subnet-09cecc8c853637d3b",
    "resource_path": "aws_subnet.xyz_public_subnet-0"
  },
  "aws.ec2.subnet____subnet-0094b72dfb7ce6131": {
    "resource": {
      "aws.ec2.subnet.present": [
        {
          "name": "subnet-0094b72dfb7ce6131"
        },
        {
          "resource_id": "subnet-0094b72dfb7ce6131"
        },
        {
          "vpc_id": "vpc-0738f2a523f4735bd"
        },
        {
          "cidr_block": "10.170.208.0/20"
        },
        {
          "availability_zone": "eu-west-3b"
        },
        {
          "tags": [
            {
              "Key": "KubernetesCluster",
              "Value": "idem-test"
            },
            {
              "Key": "kubernetes.io/cluster/idem-test",
              "Value": "shared"
            },
            {
              "Key": "kubernetes.io/role/elb",
              "Value": "1"
            },
            {
              "Key": "Automation",
              "Value": "true"
            },
            {
              "Key": "Owner",
              "Value": "org1"
            },
            {
              "Key": "COGS",
              "Value": "OPEX"
            },
            {
              "Key": "Environment",
              "Value": "test-dev"
            },
            {
              "Key": "Name",
              "Value": "idem-test-temp-xyz-control-public"
            }
          ]
        }
      ]
    },
    "idem_resource_id": "subnet-0094b72dfb7ce6131",
    "resource_path": "aws_subnet.xyz_public_subnet-1"
  },
  "aws.ec2.subnet____subnet-0d68d61b1ab708d42": {
    "resource": {
      "aws.ec2.subnet.present": [
        {
          "name": "subnet-0d68d61b1ab708d42"
        },
        {
          "resource_id": "subnet-0d68d61b1ab708d42"
        },
        {
          "vpc_id": "vpc-0738f2a523f4735bd"
        },
        {
          "cidr_block": "10.170.224.0/20"
        },
        {
          "availability_zone": "eu-west-3c"
        },
        {
          "tags": [
            {
              "Key": "Owner",
              "Value": "org1"
            },
            {
              "Key": "kubernetes.io/role/elb",
              "Value": "1"
            },
            {
              "Key": "COGS",
              "Value": "OPEX"
            },
            {
              "Key": "KubernetesCluster",
              "Value": "idem-test"
            },
            {
              "Key": "Automation",
              "Value": "true"
            },
            {
              "Key": "Environment",
              "Value": "test-dev"
            },
            {
              "Key": "Name",
              "Value": "idem-test-temp-xyz-control-public"
            },
            {
              "Key": "kubernetes.io/cluster/idem-test",
              "Value": "shared"
            }
          ]
        }
      ]
    },
    "idem_resource_id": "subnet-0d68d61b1ab708d42",
    "resource_path": "aws_subnet.xyz_public_subnet-2"
  },
  "aws.ec2.vpc____vpc-0738f2a523f4735bd": {
    "resource": {
      "aws.ec2.vpc.present": [
        {
          "name": "vpc-0738f2a523f4735bd"
        },
        {
          "resource_id": "vpc-0738f2a523f4735bd"
        },
        {
          "instance_tenancy": "default"
        },
        {
          "tags": [
            {
              "Key": "COGS",
              "Value": "OPEX"
            },
            {
              "Key": "Automation",
              "Value": "true"
            },
            {
              "Key": "Owner",
              "Value": "org1"
            },
            {
              "Key": "kubernetes.io/cluster/idem-test",
              "Value": "shared"
            },
            {
              "Key": "KubernetesCluster",
              "Value": "idem-test"
            },
            {
              "Key": "Environment",
              "Value": "test-dev"
            },
            {
              "Key": "Name",
              "Value": "idem-test-temp-xyz-cluster-node"
            }
          ]
        },
        {
          "cidr_block_association_set": [
            {
              "AssociationId": "vpc-cidr-assoc-02ab4e7064a606d2b",
              "CidrBlock": "10.170.0.0/16",
              "CidrBlockState": {
                "State": "associated"
              }
            }
          ]
        },
        {
          "enable_dns_hostnames": true
        },
        {
          "enable_dns_support": true
        }
      ]
    },
    "idem_resource_id": "vpc-0738f2a523f4735bd",
    "resource_path": "aws_vpc.cluster"
  },
  "aws.ec2.dhcp_option____dopt-052512c363a0a800b": {
    "resource": {
      "aws.ec2.dhcp_option.present": [
        {
          "name": "dopt-052512c363a0a800b"
        },
        {
          "resource_id": "dopt-052512c363a0a800b"
        },
        {
          "tags": [
            {
              "Key": "COGS",
              "Value": "OPEX"
            },
            {
              "Key": "Owner",
              "Value": "org1"
            },
            {
              "Key": "Name",
              "Value": "xyz-idem-test"
            },
            {
              "Key": "Environment",
              "Value": "test-dev"
            },
            {
              "Key": "Automation",
              "Value": "true"
            },
            {
              "Key": "KubernetesCluster",
              "Value": "idem-test"
            }
          ]
        },
        {
          "dhcp_configurations": [
            {
              "Key": "domain-name",
              "Values": [
                "us-west-2.compute.internal"
              ]
            },
            {
              "Key": "domain-name-servers",
              "Values": [
                "AmazonProvidedDNS"
              ]
            }
          ]
        }
      ]
    },
    "idem_resource_id": "dopt-052512c363a0a800b",
    "resource_path": "aws_vpc_dhcp_options.vpc_options"
  },
  "aws.iam.policy____arn:aws:iam::123456789012:policy/xyz-idem-test-admin": {
    "resource": {
      "aws.iam.policy.present": [
        {
          "policy_document": "{\"Statement\": [{\"Action\": [\"xyz:*\"], \"Effect\": \"Allow\", \"Resource\": \"*\"}, {\"Action\": [\"iam:PassRole\"], \"Effect\": \"Allow\", \"Resource\": [\"arn:aws:iam::123456789012:role/idem-test-temp-xyz-cluster\"]}, {\"Action\": [\"kms:Create*\", \"kms:Describe*\", \"kms:Enable*\", \"kms:List*\", \"kms:Put*\", \"kms:Update*\", \"kms:Revoke*\", \"kms:Disable*\", \"kms:Get*\", \"kms:Delete*\", \"kms:TagResource\", \"kms:UntagResource\", \"kms:ScheduleKeyDeletion\", \"kms:CancelKeyDeletion\"], \"Effect\": \"Allow\", \"Resource\": \"arn:aws:kms:eu-west-3:123456789012:key/8ac5f341-fd1c-4e9d-9596-8f844dba5cc8\"}], \"Version\": \"2012-10-17\"}"
        },
        {
          "default_version_id": "v1"
        },
        {
          "tags": []
        },
        {
          "name": "xyz-idem-test-admin"
        },
        {
          "resource_id": "arn:aws:iam::123456789012:policy/xyz-idem-test-admin"
        },
        {
          "id": "ANPAX2FJ77DCY4DVSXP5E"
        },
        {
          "path": "/"
        }
      ]
    },
    "idem_resource_id": "arn:aws:iam::123456789012:policy/xyz-idem-test-admin",
    "resource_path": "aws_iam_policy.xyz-admin"
  },
  "aws.iam.role____idem-test-temp-xyz-cluster-node": {
    "resource": {
      "aws.iam.role.present": [
        {
          "resource_id": "idem-test-temp-xyz-cluster-node"
        },
        {
          "name": "idem-test-temp-xyz-cluster-node"
        },
        {
          "arn": "arn:aws:iam::123456789012:role/idem-test-temp-xyz-cluster-node"
        },
        {
          "id": "AROAX2FJ77DC6POVG7T5L"
        },
        {
          "path": "/"
        },
        {
          "max_session_duration": 3600
        },
        {
          "tags": [
            {
              "Key": "Automation",
              "Value": "true"
            },
            {
              "Key": "Environment",
              "Value": "test-dev"
            },
            {
              "Key": "KubernetesCluster",
              "Value": "idem-test"
            },
            {
              "Key": "COGS",
              "Value": "OPEX"
            },
            {
              "Key": "Owner",
              "Value": "org1"
            }
          ]
        },
        {
          "assume_role_policy_document": "{\"Statement\": [{\"Action\": \"sts:AssumeRole\", \"Effect\": \"Allow\", \"Principal\": {\"Service\": \"ec2.amazonaws.com\"}}], \"Version\": \"2012-10-17\"}"
        }
      ]
    },
    "idem_resource_id": "idem-test-temp-xyz-cluster-node",
    "resource_path": "aws_iam_role.cluster-node"
  },
  "aws.iam.role____xyz-idem-test-admin": {
    "resource": {
      "aws.iam.role.present": [
        {
          "resource_id": "xyz-idem-test-admin"
        },
        {
          "name": "xyz-idem-test-admin"
        },
        {
          "arn": "arn:aws:iam::123456789012:role/xyz-idem-test-admin"
        },
        {
          "id": "AROAX2FJ77DC33OWDECR6"
        },
        {
          "path": "/"
        },
        {
          "max_session_duration": 3600
        },
        {
          "tags": [
            {
              "Key": "Environment",
              "Value": "test-dev"
            },
            {
              "Key": "Owner",
              "Value": "org1"
            },
            {
              "Key": "Automation",
              "Value": "true"
            },
            {
              "Key": "COGS",
              "Value": "OPEX"
            },
            {
              "Key": "KubernetesCluster",
              "Value": "idem-test"
            }
          ]
        },
        {
          "assume_role_policy_document": "{\"Statement\": [{\"Action\": \"sts:AssumeRole\", \"Condition\": {\"ForAnyValue:StringEquals\": {\"aws:username\": [\"user1\", \"user2\", \"user3\", \"user4\", \"user5\"]}}, \"Effect\": \"Allow\", \"Principal\": {\"AWS\": \"arn:aws:iam::123456789012:root\"}}, {\"Action\": \"sts:AssumeRole\", \"Effect\": \"Allow\", \"Principal\": {\"Service\": \"xyz.amazonaws.com\"}}], \"Version\": \"2012-10-17\"}"
        }
      ]
    },
    "idem_resource_id": "xyz-idem-test-admin",
    "resource_path": "aws_iam_role.xyz-admin"
  },
  "aws.iam.role_policy____idem-test-temp-xyz-cluster-node:Amazon_EBS_CSI_Driver": {
    "resource": {
      "aws.iam.role_policy.present": [
        {
          "resource_id": "idem-test-temp-xyz-cluster-node-Amazon_EBS_CSI_Driver"
        },
        {
          "role_name": "idem-test-temp-xyz-cluster-node"
        },
        {
          "name": "Amazon_EBS_CSI_Driver"
        },
        {
          "policy_document": "{\"Statement\": [{\"Action\": [\"ec2:AttachVolume\", \"ec2:CreateSnapshot\", \"ec2:CreateTags\", \"ec2:CreateVolume\", \"ec2:DeleteSnapshot\", \"ec2:DeleteTags\", \"ec2:DeleteVolume\", \"ec2:DescribeAvailabilityZones\", \"ec2:DescribeInstances\", \"ec2:DescribeSnapshots\", \"ec2:DescribeTags\", \"ec2:DescribeVolumes\", \"ec2:DescribeVolumesModifications\", \"ec2:DetachVolume\", \"ec2:ModifyVolume\"], \"Effect\": \"Allow\", \"Resource\": \"*\"}], \"Version\": \"2012-10-17\"}"
        }
      ]
    },
    "idem_resource_id": "idem-test-temp-xyz-cluster-node-Amazon_EBS_CSI_Driver",
    "resource_path": "aws_iam_role_policy.Amazon_EBS_CSI_Driver"
  },
  "aws.iam.role_policy____idem-test-temp-xyz-cluster-node:credstash_xyz_idem-test_access_policy": {
    "resource": {
      "aws.iam.role_policy.present": [
        {
          "resource_id": "idem-test-temp-xyz-cluster-node-credstash_xyz_idem-test_access_policy"
        },
        {
          "role_name": "idem-test-temp-xyz-cluster-node"
        },
        {
          "name": "credstash_xyz_idem-test_access_policy"
        },
        {
          "policy_document": "{\"Statement\": [{\"Action\": [\"kms:GenerateDataKey\", \"kms:Decrypt\"], \"Effect\": \"Allow\", \"Resource\": \"arn:aws:kms:eu-west-3:123456789012:key/8ac5f341-fd1c-4e9d-9596-8f844dba5cc8\"}, {\"Action\": [\"dynamodb:PutItem\", \"dynamodb:GetItem\", \"dynamodb:Query\", \"dynamodb:Scan\"], \"Effect\": \"Allow\", \"Resource\": \"arn:aws:dynamodb:eu-west-3:123456789012:table/xyz-idem-test-credential-store\"}], \"Version\": \"2012-10-17\"}"
        }
      ]
    },
    "idem_resource_id": "idem-test-temp-xyz-cluster-node-credstash_xyz_idem-test_access_policy",
    "resource_path": "aws_iam_role_policy.credstash_access_policy"
  },
  "aws.iam.role_policy_attachment____idem-test-temp-xyz-cluster-node:arn:aws:iam::aws:policy/AmazonEC2ContainerRegistryReadOnly": {
    "resource": {
      "aws.iam.role_policy_attachment.present": [
        {
          "role_name": "idem-test-temp-xyz-cluster-node"
        },
        {
          "policy_arn": "arn:aws:iam::aws:policy/AmazonEC2ContainerRegistryReadOnly"
        }
      ]
    },
    "idem_resource_id": "idem-test-temp-xyz-cluster-node-arn:aws:iam::aws:policy/AmazonEC2ContainerRegistryReadOnly",
    "resource_path": "aws_iam_role_policy_attachment.cluster-node-AmazonEC2ContainerRegistryReadOnly"
  },
  "aws.iam.role_policy_attachment____idem-test-temp-xyz-cluster-node:arn:aws:iam::aws:policy/AmazonEC2ReadOnlyAccess": {
    "resource": {
      "aws.iam.role_policy_attachment.present": [
        {
          "role_name": "idem-test-temp-xyz-cluster-node"
        },
        {
          "policy_arn": "arn:aws:iam::aws:policy/AmazonEC2ReadOnlyAccess"
        }
      ]
    },
    "idem_resource_id": "idem-test-temp-xyz-cluster-node-arn:aws:iam::aws:policy/AmazonEC2ReadOnlyAccess",
    "resource_path": "aws_iam_role_policy_attachment.cluster-node-AmazonEC2ReadOnlyAccess"
  },
  "aws.iam.role_policy_attachment____idem-test-temp-xyz-cluster-node:arn:aws:iam::aws:policy/service-role/AmazonEC2RoleforSSM": {
    "resource": {
      "aws.iam.role_policy_attachment.present": [
        {
          "role_name": "idem-test-temp-xyz-cluster-node"
        },
        {
          "policy_arn": "arn:aws:iam::aws:policy/service-role/AmazonEC2RoleforSSM"
        }
      ]
    },
    "idem_resource_id": "idem-test-temp-xyz-cluster-node-arn:aws:iam::aws:policy/service-role/AmazonEC2RoleforSSM",
    "resource_path": "aws_iam_role_policy_attachment.cluster-node-AmazonEC2RoleforSSM"
  },
  "aws.iam.role_policy_attachment____idem-test-temp-xyz-cluster-node:arn:aws:iam::aws:policy/AmazonxyzWorkerNodePolicy": {
    "resource": {
      "aws.iam.role_policy_attachment.present": [
        {
          "role_name": "idem-test-temp-xyz-cluster-node"
        },
        {
          "policy_arn": "arn:aws:iam::aws:policy/AmazonxyzWorkerNodePolicy"
        }
      ]
    },
    "idem_resource_id": "idem-test-temp-xyz-cluster-node-arn:aws:iam::aws:policy/AmazonxyzWorkerNodePolicy",
    "resource_path": "aws_iam_role_policy_attachment.cluster-node-AmazonxyzWorkerNodePolicy"
  },
  "aws.iam.role_policy_attachment____idem-test-temp-xyz-cluster-node:arn:aws:iam::aws:policy/Amazonxyz_CNI_Policy": {
    "resource": {
      "aws.iam.role_policy_attachment.present": [
        {
          "role_name": "idem-test-temp-xyz-cluster-node"
        },
        {
          "policy_arn": "arn:aws:iam::aws:policy/Amazonxyz_CNI_Policy"
        }
      ]
    },
    "idem_resource_id": "idem-test-temp-xyz-cluster-node-arn:aws:iam::aws:policy/Amazonxyz_CNI_Policy",
    "resource_path": "aws_iam_role_policy_attachment.cluster-node-Amazonxyz_CNI_Policy"
  },
  "aws.iam.role_policy_attachment____idem-test-temp-xyz-cluster-node:arn:aws:iam::aws:policy/AmazonElasticFileSystemFullAccess": {
    "resource": {
      "aws.iam.role_policy_attachment.present": [
        {
          "role_name": "idem-test-temp-xyz-cluster-node"
        },
        {
          "policy_arn": "arn:aws:iam::aws:policy/AmazonElasticFileSystemFullAccess"
        }
      ]
    },
    "idem_resource_id": "idem-test-temp-xyz-cluster-node-arn:aws:iam::aws:policy/AmazonElasticFileSystemFullAccess",
    "resource_path": "aws_iam_role_policy_attachment.cluster-node-AmazonElasticFileSystemFullAccess"
  },
  "aws.iam.role_policy_attachment____xyz-idem-test-admin:arn:aws:iam::123456789012:policy/xyz-idem-test-admin": {
    "resource": {
      "aws.iam.role_policy_attachment.present": [
        {
          "role_name": "xyz-idem-test-admin"
        },
        {
          "policy_arn": "arn:aws:iam::123456789012:policy/xyz-idem-test-admin"
        }
      ]
    },
    "idem_resource_id": "xyz-idem-test-admin-arn:aws:iam::123456789012:policy/xyz-idem-test-admin",
    "resource_path": "aws_iam_role_policy_attachment.xyz-admin"
  },
  "aws.ec2.security_group_rule____sgr-06fa8980bf9bffea7": {
    "resource": {
      "aws.ec2.security_group_rule.present": [
        {
          "name": "sgr-06fa8980bf9bffea7"
        },
        {
          "resource_id": "sgr-06fa8980bf9bffea7"
        },
        {
          "group_id": "sg-02b4fa0698eaa06cf"
        },
        {
          "is_egress": false
        },
        {
          "ip_protocol": "-1"
        },
        {
          "from_port": -1
        },
        {
          "to_port": -1
        },
        {
          "tags": []
        },
        {
          "description": "Allow worker Kubelets and pods to receive communication from the nessus scanner"
        },
        {
          "referenced_group_info": {
            "GroupId": "sg-06552329287f9b206",
            "UserId": "123456789012"
          }
        }
      ]
    },
    "idem_resource_id": "aws.ec2.security_group_rule____sgr-06fa8980bf9bffea7",
    "resource_path": "aws_security_group.cluster-node-rule-0"
  },
  "aws.ec2.security_group_rule____sgr-0746837a711b2f632": {
    "resource": {
      "aws.ec2.security_group_rule.present": [
        {
          "name": "sgr-0746837a711b2f632"
        },
        {
          "resource_id": "sgr-0746837a711b2f632"
        },
        {
          "group_id": "sg-02b4fa0698eaa06cf"
        },
        {
          "is_egress": false
        },
        {
          "ip_protocol": "tcp"
        },
        {
          "from_port": 1025
        },
        {
          "to_port": 65535
        },
        {
          "tags": []
        },
        {
          "description": "Allow worker Kubelets and pods to receive communication from the cluster control plane"
        },
        {
          "referenced_group_info": {
            "GroupId": "sg-070a797a4b433814b",
            "UserId": "123456789012"
          }
        }
      ]
    },
    "idem_resource_id": "aws.ec2.security_group_rule____sgr-0746837a711b2f632",
    "resource_path": "aws_security_group.cluster-node-rule-1"
  },
  "aws.ec2.security_group_rule____sgr-077c2651cc2eb9b1f": {
    "resource": {
      "aws.ec2.security_group_rule.present": [
        {
          "name": "sgr-077c2651cc2eb9b1f"
        },
        {
          "resource_id": "sgr-077c2651cc2eb9b1f"
        },
        {
          "group_id": "sg-070a797a4b433814b"
        },
        {
          "is_egress": false
        },
        {
          "ip_protocol": "tcp"
        },
        {
          "from_port": 443
        },
        {
          "to_port": 443
        },
        {
          "tags": []
        },
        {
          "description": "Allow pods to communicate with the cluster API Server"
        },
        {
          "referenced_group_info": {
            "GroupId": "sg-02b4fa0698eaa06cf",
            "UserId": "123456789012"
          }
        }
      ]
    },
    "idem_resource_id": "aws.ec2.security_group_rule____sgr-077c2651cc2eb9b1f",
    "resource_path": "aws_security_group.cluster-rule-0"
  },
  "aws.ec2.security_group_rule____sgr-0895dc3282b1068e5": {
    "resource": {
      "aws.ec2.security_group_rule.present": [
        {
          "name": "sgr-0895dc3282b1068e5"
        },
        {
          "resource_id": "sgr-0895dc3282b1068e5"
        },
        {
          "group_id": "sg-06552329287f9b206"
        },
        {
          "is_egress": true
        },
        {
          "ip_protocol": "-1"
        },
        {
          "from_port": -1
        },
        {
          "to_port": -1
        },
        {
          "cidr_ipv4": "0.0.0.0/0"
        },
        {
          "tags": []
        }
      ]
    },
    "idem_resource_id": "aws.ec2.security_group_rule____sgr-0895dc3282b1068e5",
    "resource_path": "aws_security_group.nessus_vuln_scanner-rule-0"
  },
  "aws.ec2.security_group_rule____sgr-0a410f396195a1a29": {
    "resource": {
      "aws.ec2.security_group_rule.present": [
        {
          "name": "sgr-0a410f396195a1a29"
        },
        {
          "resource_id": "sgr-0a410f396195a1a29"
        },
        {
          "group_id": "sg-02b4fa0698eaa06cf"
        },
        {
          "is_egress": true
        },
        {
          "ip_protocol": "-1"
        },
        {
          "from_port": -1
        },
        {
          "to_port": -1
        },
        {
          "cidr_ipv4": "0.0.0.0/0"
        },
        {
          "tags": []
        }
      ]
    },
    "idem_resource_id": "aws.ec2.security_group_rule____sgr-0a410f396195a1a29",
    "resource_path": "aws_security_group.cluster-node-rule-2"
  },
  "aws.ec2.security_group_rule____sgr-0a4ef3a78cdce5042": {
    "resource": {
      "aws.ec2.security_group_rule.present": [
        {
          "name": "sgr-0a4ef3a78cdce5042"
        },
        {
          "resource_id": "sgr-0a4ef3a78cdce5042"
        },
        {
          "group_id": "sg-070a797a4b433814b"
        },
        {
          "is_egress": true
        },
        {
          "ip_protocol": "-1"
        },
        {
          "from_port": -1
        },
        {
          "to_port": -1
        },
        {
          "cidr_ipv4": "0.0.0.0/0"
        },
        {
          "tags": []
        }
      ]
    },
    "idem_resource_id": "aws.ec2.security_group_rule____sgr-0a4ef3a78cdce5042",
    "resource_path": "aws_security_group.cluster-rule-1"
  },
  "aws.ec2.security_group_rule____sgr-0b6d618ed84f17b83": {
    "resource": {
      "aws.ec2.security_group_rule.present": [
        {
          "name": "sgr-0b6d618ed84f17b83"
        },
        {
          "resource_id": "sgr-0b6d618ed84f17b83"
        },
        {
          "group_id": "sg-02b4fa0698eaa06cf"
        },
        {
          "is_egress": false
        },
        {
          "ip_protocol": "tcp"
        },
        {
          "from_port": 22
        },
        {
          "to_port": 22
        },
        {
          "cidr_ipv4": "10.170.0.0/16"
        },
        {
          "tags": []
        },
        {
          "description": "Allow bastion to communicate with worker nodes"
        }
      ]
    },
    "idem_resource_id": "aws.ec2.security_group_rule____sgr-0b6d618ed84f17b83",
    "resource_path": "aws_security_group.cluster-node-rule-3"
  },
  "aws.ec2.security_group_rule____sgr-0d08ef367d62e82f3": {
    "resource": {
      "aws.ec2.security_group_rule.present": [
        {
          "name": "sgr-0d08ef367d62e82f3"
        },
        {
          "resource_id": "sgr-0d08ef367d62e82f3"
        },
        {
          "group_id": "sg-02b4fa0698eaa06cf"
        },
        {
          "is_egress": false
        },
        {
          "ip_protocol": "tcp"
        },
        {
          "from_port": 443
        },
        {
          "to_port": 443
        },
        {
          "tags": []
        },
        {
          "description": "Allow worker Kubelets and pods to receive communication from the cluster control plane"
        },
        {
          "referenced_group_info": {
            "GroupId": "sg-070a797a4b433814b",
            "UserId": "123456789012"
          }
        }
      ]
    },
    "idem_resource_id": "aws.ec2.security_group_rule____sgr-0d08ef367d62e82f3",
    "resource_path": "aws_security_group.cluster-node-rule-4"
  },
  "aws.ec2.security_group_rule____sgr-0ffb22f7ca7a0f16c": {
    "resource": {
      "aws.ec2.security_group_rule.present": [
        {
          "name": "sgr-0ffb22f7ca7a0f16c"
        },
        {
          "resource_id": "sgr-0ffb22f7ca7a0f16c"
        },
        {
          "group_id": "sg-02b4fa0698eaa06cf"
        },
        {
          "is_egress": false
        },
        {
          "ip_protocol": "-1"
        },
        {
          "from_port": -1
        },
        {
          "to_port": -1
        },
        {
          "tags": []
        },
        {
          "description": "Allow node to communicate with each other"
        },
        {
          "referenced_group_info": {
            "GroupId": "sg-02b4fa0698eaa06cf",
            "UserId": "123456789012"
          }
        }
      ]
    },
    "idem_resource_id": "aws.ec2.security_group_rule____sgr-0ffb22f7ca7a0f16c",
    "resource_path": "aws_security_group.cluster-node-rule-5"
  }
}
